bydliste,cislo,jmeno,kraj,navrhujici_strana,nazev,poradove_cislo,povolani,prislusnost,vek,foto,mp3
Zliv,1,Skleničková Libuše,Jihočeský kraj,PB,"Volte Pravý Blok-stranu za ODVOLAT.polit.,NÍZKÉ daně,VYROVN.rozp.,MIN.byrokr.,SPRAV.just.,PŘÍMOU demokr. WWW.CIBULKA.NET",1,angažovaný občan,BEZPP,65,,
Letovice,1,Viška Miroslav,Jihomoravský kraj,PB,"Volte Pravý Blok-stranu za ODVOLAT.polit.,NÍZKÉ daně,VYROVN.rozp.,MIN.byrokr.,SPRAV.just.,PŘÍMOU demokr. WWW.CIBULKA.NET",1,pojišťovací poradce,BEZPP,48,,
Verušičky,1,Roubínek Miroslav,Karlovarský kraj,PB,"Volte Pravý Blok-stranu za ODVOLAT.polit.,NÍZKÉ daně,VYROVN.rozp.,MIN.byrokr.,SPRAV.just.,PŘÍMOU demokr. WWW.CIBULKA.NET",1,vedoucí výpočetního střediska,BEZPP,41,,
Žďár nad Sázavou,1,Kočík Milan,Kraj Vysočina,PB,"Volte Pravý Blok-stranu za ODVOLAT.polit.,NÍZKÉ daně,VYROVN.rozp.,MIN.byrokr.,SPRAV.just.,PŘÍMOU demokr. WWW.CIBULKA.NET",1,přírodní léčitel a propagátor NNO,BEZPP,61,,
Meziměstí,1,Spitzer Leopold,Královéhradecký kraj,PB,"Volte Pravý Blok-stranu za ODVOLAT.polit.,NÍZKÉ daně,VYROVN.rozp.,MIN.byrokr.,SPRAV.just.,PŘÍMOU demokr. WWW.CIBULKA.NET",1,strojník vodohospodářských zařízení,BEZPP,57,,
Jilemnice,1,Jebavá Miloslava  PhDr.,Liberecký kraj,PB,"Volte Pravý Blok-stranu za ODVOLAT.polit.,NÍZKÉ daně,VYROVN.rozp.,MIN.byrokr.,SPRAV.just.,PŘÍMOU demokr. WWW.CIBULKA.NET",1,učitelka anglického a francouzského jazyka,BEZPP,63,,
Třinec,1,Zientek Zbyhněv  MUDr.,Moravskoslezský kraj,PB,"Volte Pravý Blok-stranu za ODVOLAT.polit.,NÍZKÉ daně,VYROVN.rozp.,MIN.byrokr.,SPRAV.just.,PŘÍMOU demokr. WWW.CIBULKA.NET",1,soukromý zubní lékař,BEZPP,56,,
Šumperk,1,Friedl Josef,Olomoucký kraj,PB,"Volte Pravý Blok-stranu za ODVOLAT.polit.,NÍZKÉ daně,VYROVN.rozp.,MIN.byrokr.,SPRAV.just.,PŘÍMOU demokr. WWW.CIBULKA.NET",1,angažovaný občan,BEZPP,72,,
Jaroměřice,1,Tichý Lubomír  Ing.,Pardubický kraj,PB,"Volte Pravý Blok-stranu za ODVOLAT.polit.,NÍZKÉ daně,VYROVN.rozp.,MIN.byrokr.,SPRAV.just.,PŘÍMOU demokr. WWW.CIBULKA.NET",1,angažovaný občan,BEZPP,69,,
Plzeň,1,Štembera Oldřich  MUDr.,Plzeňský kraj,PB,"Volte Pravý Blok-stranu za ODVOLAT.polit.,NÍZKÉ daně,VYROVN.rozp.,MIN.byrokr.,SPRAV.just.,PŘÍMOU demokr. WWW.CIBULKA.NET",1,lékař,BEZPP,67,,
Starý Kolín,1,Vilím Stanislav,Středočeský kraj,PB,"Volte Pravý Blok-stranu za ODVOLAT.polit.,NÍZKÉ daně,VYROVN.rozp.,MIN.byrokr.,SPRAV.just.,PŘÍMOU demokr. WWW.CIBULKA.NET",1,technik údržby letadel,BEZPP,45,,
Podbořany,1,Baumann Gustav,Ústecký kraj,PB,"Volte Pravý Blok-stranu za ODVOLAT.polit.,NÍZKÉ daně,VYROVN.rozp.,MIN.byrokr.,SPRAV.just.,PŘÍMOU demokr. WWW.CIBULKA.NET",1,zootechnik,BEZPP,45,,
České Budějovice,2,Zahradník Jan  RNDr.,Jihočeský kraj,ODS,Občanská demokratická strana,1,poslanec,ODS,67,,
Blansko,2,Crha Jiří  Ing.,Jihomoravský kraj,ODS,Občanská demokratická strana,1,místostarosta města Blanska,ODS,56,,
Sokolov,2,Jakobec Karel  Ing.,Karlovarský kraj,ODS,Občanská demokratická strana,1,místostarosta města Sokolov,ODS,52,,
Jihlava,2,Geist Zdeněk  Mgr.,Kraj Vysočina,ODS,Občanská demokratická strana,1,"podnikatel, publicista",ODS,45,,
Vysokov,2,Červíček Martin  brig. gen. v.v. Mgr.,Královéhradecký kraj,ODS,Občanská demokratická strana,1,bývalý policejní prezident,ODS,44,,
Frýdlant,2,Ramzer Dan  Ing.,Liberecký kraj,ODS,Občanská demokratická strana,1,starosta města Frýdlantu,ODS,46,,
Klimkovice,2,Unucka Jakub  Ing. MBA,Moravskoslezský kraj,ODS,Občanská demokratická strana,1,ředitel IT firmy a místostarosta města,ODS,47,,
Uničov,2,Horák Dalibor  Mgr.,Olomoucký kraj,ODS,Občanská demokratická strana,1,starosta města,ODS,51,,
Litomyšl,2,Kortyš Michal,Pardubický kraj,ODS,Občanská demokratická strana,1,"Místostar. a býv. star. města Litomyšl, podnikatel",ODS,54,,
Plzeň,2,Baxa Martin  Mgr.,Plzeňský kraj,ODS,Občanská demokratická strana,1,"1. náměstek primátora m. Plzně, učitel na gymnáziu",ODS,41,,
Líbeznice,2,Kupka Martin  Mgr.,Středočeský kraj,ODS,Občanská demokratická strana,1,starosta,ODS,40,,
Kadaň,2,Kulhánek Jiří  PaedDr.,Ústecký kraj,ODS,Občanská demokratická strana,1,starosta města Kadaň,ODS,54,,
Vlčnov,2,Pijáček Jan,Zlínský kraj,ODS,Občanská demokratická strana,1,starosta obce Vlčnov,ODS,58,,
Liberec,3,Vajnerová Lidie  Ing. MBA,Liberecký kraj,NBPLK,Budoucnost pro Liberecký kraj,1,"podnikatelka, zakladatelka iQlandie",BEZPP,61,,
Budyně nad Ohří,4,"Medáček Petr  Ing. CSc., MBA",Ústecký kraj,SNK ED,Starostové a Sportovci pro Ústecký kraj,1,"starosta města Budyně nad Ohří, pův. pov.věd.praco",SNK ED,58,,
Sadov,5,Frisch Eduard,Karlovarský kraj,SNK1,Sdružení nezávislých kandidátů 1,1,"starosta obce, zkušební komisař zbraně a střelivo",SNK1,53,,
Majetín,6,Šmída Martin  Ing. et Ing.,Olomoucký kraj,Piráti,Piráti + Změna + ProRegion -> Kraj nové generace,1,"ob.zast.,odb. prac. v obl.kompost.bioodp.a recykl.",Piráti,31,,
Hradec Králové,7,Morávek Jiří  Mgr.,Královéhradecký kraj,SPD,Koalice Svoboda a přímá demokracie - Tomio Okamura (SPD) a Strana Práv Občanů a SNK,1,ředitel centra pro osoby se zdravotním postižením,BEZPP,58,,
Brodek u Přerova,8,Vojtek Jaroslav,Olomoucký kraj,ČSS,Československá strana socialistická,1,předseda strany ČSS,ČSS,69,,
Hradec nad Moravicí,9,Skařupa Jindřich  Ing.,Moravskoslezský kraj,KSČ,Komunistická strana Československa,1,OSVČ,KSČ,61,,
Bojanov,9,Stehno Jaroslav  Bc.,Pardubický kraj,KSČ,Komunistická strana Československa,1,státní zaměstnanec,BEZPP,53,,
Litoměřice,9,Hejna Miroslav  Ing.,Ústecký kraj,KSČ,Komunistická strana Československa,1,důchodce,KSČ,70,,
Raspenava,10,Kopecký Jaroslav,Liberecký kraj,SPRRSČ M.Sládka,"Koalice Republikánů Miroslava Sládka, Patriotů České republiky, HOZK a Nového směru",1,podnikatel,SPRRSČ M.Sládka,37,,
Nymburk,11,Červenka Pavel,Středočeský kraj,OBČANÉ 2011,OBČANÉ 2011,1,technik,BEZPP,41,,
Nová Bystřice,12,Zimola Jiří  Mgr.,Jihočeský kraj,ČSSD,Česká strana sociálně demokratická,1,hejtman,ČSSD,45,,
Brno,12,Hašek Michal  JUDr.,Jihomoravský kraj,ČSSD,Česká strana sociálně demokratická,1,hejtman Jihomoravského kraje,ČSSD,40,,
Karlovy Vary,12,Havel Martin  JUDr.,Karlovarský kraj,ČSSD,Česká strana sociálně demokratická,1,hejtman Karlovarského kraje,ČSSD,50,,
Pelhřimov,12,Běhounek Jiří  MUDr.,Kraj Vysočina,ČSSD,Česká strana sociálně demokratická,1,"lékař, hejtman",BEZPP,64,,
Hradec Králové,12,Štěpán Jiří  PhDr. Ph.D.,Královéhradecký kraj,ČSSD,Česká strana sociálně demokratická,1,"VŠ pedagog, proděkan fakulty",ČSSD,37,,
Jablonec nad Nisou,12,Svoboda Pavel  Mgr.,Liberecký kraj,ČSSD,Česká strana sociálně demokratická,1,"advokát, statutární náměstek primátora",ČSSD,37,,
Ostrava,12,Novák Miroslav,Moravskoslezský kraj,ČSSD,Česká strana sociálně demokratická,1,hejtman,ČSSD,44,,
Šternberk,12,Zemánek Jiří  Mgr.,Olomoucký kraj,ČSSD,Česká strana sociálně demokratická,1,"učitel, poslanec PS PČR",ČSSD,51,,
Česká Třebová,12,Netolický Martin  JUDr. Ph.D.,Pardubický kraj,ČSSD,Česká strana sociálně demokratická,1,"hejtman Pardubického kraje, právník",ČSSD,34,,
Štěnovický Borek,12,Bernard Josef,Plzeňský kraj,ČSSD,Česká strana sociálně demokratická,1,člen správní rady Techmania,ČSSD,51,,
Nymburk,12,Petera Miloš  Ing.,Středočeský kraj,ČSSD,Česká strana sociálně demokratická,1,hejtman Středočeského kraje,ČSSD,58,,
Děčín,12,Foldyna Jaroslav,Ústecký kraj,ČSSD,Česká strana sociálně demokratická,1,poslanec PS PČR,ČSSD,56,,
Slavičín,12,Navrátil Petr  PaedDr.,Zlínský kraj,ČSSD,Česká strana sociálně demokratická,1,člen Rady Zlín. kraje pro oblast školství a sportu,ČSSD,61,,
Lišov,13,Švec Jiří  Bc.,Jihočeský kraj,STAN,"PRO JIŽNÍ ČECHY - Starostové, HOPB a TOP 09",1,starosta,STAN,40,,
Karlovy Vary,14,Kotek Jiří  Ing.,Karlovarský kraj,ALTERNATIVA,ALTERNATIVA,1,"OSVČ manažer, jednatel, zastupitel kraje a města",ALTERNATIVA,58,,
Pacov,16,Vlček Lukáš  Ing.,Kraj Vysočina,SNK ED,Starostové PRO VYSOČINU,1,starosta,BEZPP,34,,
Teplice,17,Svoboda Pavel,Ústecký kraj,SPRRSČ M.Sládka,Ilegálním imigrantům NE - peníze raději pro naše děti,1,vydavatel měsíčníku Trefa,BEZPP,73,,
Most,18,Štembera Sáša  MUDr.,Ústecký kraj,S.cz,Severočeši.cz,1,"lékař, chirurg",S.cz,66,,
Brno,19,Lošťák Viktor  Bc.,Jihomoravský kraj,SaS,Svoboda a síla,1,"softwarový vývojář, zastupitel",SaS,47,,
Smolnice,20,Steiner Leo  Mgr.,Ústecký kraj,JsmePRO!,JsmePRO! Kraj 2016,1,"ředitel sekce SFŽP ČR,iniciátor transpar.eurodotac",BEZPP,45,,
Braníškov,21,Hlavenka Jiří  Ing.,Jihomoravský kraj,SZ,Zelení a Piráti,1,podnikatel,BEZPP,51,,
Pardubice,22,Kutílek Jakub  Ing.,Pardubický kraj,SZ,"Pro otevřený kraj - Piráti, Zelení, Změna",1,dopravní projektant,SZ,30,,
Brno,23,Maleček Martin  Mgr.,Jihomoravský kraj,STAN,Starostové pro Jižní Moravu,1,starosta,BEZPP,47,,
Kaplice,24,Talíř Pavel  Mgr.,Jihočeský kraj,KDU-ČSL,Křesťanská a demokratická unie - Československá strana lidová,1,starosta Kaplice,KDU-ČSL,50,,
Vyškov,24,Celý Roman  Ing.,Jihomoravský kraj,KDU-ČSL,Křesťanská a demokratická unie - Československá strana lidová,1,náměstek hejtmana Jihomoravského kraje,KDU-ČSL,41,,
Jihlava,24,Kalina Jaromír  Ing.,Kraj Vysočina,KDU-ČSL,Křesťanská a demokratická unie - Československá strana lidová,1,náměstek primátora,KDU-ČSL,50,,
Ostrava,24,Curylo Lukáš  Mgr. et Mgr.,Moravskoslezský kraj,KDU-ČSL,Křesťanská a demokratická unie - Československá strana lidová,1,ředitel Charity České republiky,KDU-ČSL,42,,
Vsetín,24,Čunek Jiří,Zlínský kraj,KDU-ČSL,Křesťanská a demokratická unie - Československá strana lidová,1,senátor a starosta města Vsetín,KDU-ČSL,57,,
Mohelnice,25,Zwyrtek František,Olomoucký kraj,NEZ,NEZÁVISLÍ a MORAVANÉ,1,"manažer, předseda hnutí NEZÁVISLÍ",NEZ,56,,
Vranov,26,Nečas Otakar  Ing.,Jihomoravský kraj,KČ,"Koruna Česká (monarchistická strana Čech, Moravy a Slezska)",1,technik,BEZPP,64,,
Pohleď,26,Holub Jindřich,Kraj Vysočina,KČ,"Koruna Česká (monarchistická strana Čech, Moravy a Slezska)",1,starosta obce,KČ,48,,
Sedliště,26,Adamec Emil  MgA.,Moravskoslezský kraj,KČ,"Koruna Česká (monarchistická strana Čech, Moravy a Slezska)",1,"sochař, architekt, urbanista",BEZPP,43,,
Prostějov,26,Suchánková Eva,Olomoucký kraj,KČ,"Koruna Česká (monarchistická strana Čech, Moravy a Slezska)",1,učitelka,KČ,81,,
Chrast,26,Pošvář Miroslav,Pardubický kraj,KČ,"Koruna Česká (monarchistická strana Čech, Moravy a Slezska)",1,frézař,KČ,50,,
Plzeň,26,Drnek Jan,Plzeňský kraj,KČ,"Koruna Česká (monarchistická strana Čech, Moravy a Slezska)",1,spisovatel,KČ,55,,
Poříčany,26,Novotný Svatopluk,Středočeský kraj,KČ,"Koruna Česká (monarchistická strana Čech, Moravy a Slezska)",1,stavitel,KČ,40,,
Tlumačov,26,Hübel Petr,Zlínský kraj,KČ,"Koruna Česká (monarchistická strana Čech, Moravy a Slezska)",1,světelný technik,KČ,68,,
Karlovy Vary,27,Zemanová Hana  JUDr.,Karlovarský kraj,VOK,VOK - Volba pro Karlovarský kraj,1,advokátka,BEZPP,36,,
Jablonec nad Nisou,28,Netušil Jiří,Liberecký kraj,RDS,Romská demokratická strana,1,pracovník bezpečnostní služby,RDS,59,,
Ostrava,28,Maľar Jan,Moravskoslezský kraj,RDS,Romská demokratická strana,1,dělník,RDS,59,,
Benátky nad Jizerou,28,Dančo Ernest,Středočeský kraj,RDS,Romská demokratická strana,1,čalouník,RDS,33,,
Vepříkov,29,Bárta Petr,Kraj Vysočina,STO,Starostové pro občany,1,starosta,STO,48,,
Tábor,30,Maxová Radka  Ing.,Jihočeský kraj,ANO 2011,ANO 2011,1,poslankyně PSP ČR,ANO 2011,47,,
Brno,30,Šimek Bohumil  JUDr.,Jihomoravský kraj,ANO 2011,ANO 2011,1,ředitel městské policie,BEZPP,57,,
Karlovy Vary,30,Vildumetzová Jana  Mgr.,Karlovarský kraj,ANO 2011,ANO 2011,1,náměstkyně ministra vnitra pro veřejnou správu,ANO 2011,43,,
Havlíčkův Brod,30,Pavlík Josef  Ing.,Kraj Vysočina,ANO 2011,ANO 2011,1,ředitel odboru kontroly a řízení,ANO 2011,58,,
Hořice,30,Dostálová Klára  Ing.,Královéhradecký kraj,ANO 2011,ANO 2011,1,náměstkyně Ministerstva pro místní rozvoj,BEZPP,45,,
Česká Lípa,30,Volfová Jitka  Ing.,Liberecký kraj,ANO 2011,ANO 2011,1,vedoucí oddělení hospodaření s majetkem státu,ANO 2011,47,,
Velká Polom,30,Vondrák Ivo  prof. Ing. CSc.,Moravskoslezský kraj,ANO 2011,ANO 2011,1,rektor vysoké školy,BEZPP,57,,
Olomouc,30,Košta Oto  MUDr. Ph.D.,Olomoucký kraj,ANO 2011,ANO 2011,1,praktický lékař pro dospělé,BEZPP,59,,
Pardubice,30,Řehounek Jan  Ing.,Pardubický kraj,ANO 2011,ANO 2011,1,náměstek primátora města Pardubice,ANO 2011,41,,
Plzeň,30,Zeman Miloslav  Ing.,Plzeňský kraj,ANO 2011,ANO 2011,1,podnikatel,BEZPP,55,,
Benešov,30,Pokorná Jermanová Jaroslava  Ing.,Středočeský kraj,ANO 2011,ANO 2011,1,1. místopředsedkyně PS PČR,ANO 2011,46,,
Litoměřice,30,Urbánek Petr  Ing.,Ústecký kraj,ANO 2011,ANO 2011,1,manažer,ANO 2011,47,,
Tupesy,30,Balaštíková Margita,Zlínský kraj,ANO 2011,ANO 2011,1,poslankyně,ANO 2011,49,,
Ostrava,31,Harvánek Peter  Ing.,Moravskoslezský kraj,ZpL,Změna pro lidi,1,"manažer, předseda hnutí Změna pro lidi, lektor",ZpL,42,,
Hradec Králové,32,Heger Leoš  doc. MUDr. CSc.,Královéhradecký kraj,TOP 09,TOP 09,1,lékař a poslanec,TOP 09,68,,
Liberec,32,Gábor František  Bc.,Liberecký kraj,TOP 09,TOP 09,1,"válečný veterán, účastník operací Pouštní bouře",TOP 09,46,,
Bolatice,32,Pavera Herbert  Mgr.,Moravskoslezský kraj,TOP 09,TOP 09,1,"starosta obce Bolatice, poslanec PSP ČR",TOP 09,58,,
Prostějov,32,Chalánková Jitka  MUDr.,Olomoucký kraj,TOP 09,TOP 09,1,"poslankyně, dětská lékařka",TOP 09,59,,
Pardubice,32,Skalický Jiří  PharmDr. Ph.D.,Pardubický kraj,TOP 09,TOP 09,1,"primář Pardubické nemocnice,poslanec Parlamentu ČR",TOP 09,62,,
Chválenice,32,Pikner Richard  MUDr. Ph.D.,Plzeňský kraj,TOP 09,TOP 09,1,"primář Klatovské nemocnice, odborný asistent LF UK",TOP 09,44,,
Jesenice,32,Tiso Petr  MUDr. MBA,Středočeský kraj,TOP 09,TOP 09,1,"lékař-porodník, náměstek ředitele, zastupitel",TOP 09,49,,
Louny,32,Kučera Michal  Ing.,Ústecký kraj,TOP 09,TOP 09,1,poslanec PSP ČR,TOP 09,47,,
Valašské Meziříčí,32,Navrátil Vlastislav,Zlínský kraj,TOP 09,TOP 09,1,"zastupitel města Valašské Meziříčí, IT konzultant",TOP 09,48,,
Praha 1,33,Januj Daniel  Ing.,Karlovarský kraj,Úsvit,ÚSVIT - Národní Koalice s Blokem proti islamizaci,1,podnikatel,Úsvit,44,,
Morašice,34,Štěpánová Hana  Mgr.,Pardubický kraj,STAN,STAROSTOVÉ A NEZÁVISLÍ,1,"starostka, zastupitelka kraje",STAN,57,,
Kolín,34,Rakušan Vít  Mgr. Bc.,Středočeský kraj,STAN,STAROSTOVÉ A NEZÁVISLÍ,1,"starosta, středoškolský učitel",STAN,38,,
Malé Žernoseky,34,Liška Petr  Ing.,Ústecký kraj,STAN,STAROSTOVÉ A NEZÁVISLÍ,1,starosta obce,STAN,46,,
Zlín,34,Adámek Miroslav  MUDr.,Zlínský kraj,STAN,STAROSTOVÉ A NEZÁVISLÍ,1,primátor města Zlína a lékař,BEZPP,53,,
Prachatice,35,Paulová Radka  Mgr. Bc.,Jihočeský kraj,PRO2016,Politické hnutí PRO 2016,1,"ředitelka Rejstříku trestů, zast. a radní města",PRO2016,40,,
Třebechovice pod Orebem,36,Derner Vladimír  Ing.,Královéhradecký kraj,KDU-ČSL,Koalice pro Královéhradecký kraj - KDU-ČSL - Hradecký demokratický klub - Volba pro město,1,"stavební inženýr, předseda kontrolního výboru KZ",KDU-ČSL,60,,
České Budějovice,37,Braný Petr  RSDr.,Jihočeský kraj,KSČM,Komunistická strana Čech a Moravy,1,předseda Jihočeského krajského výboru KSČM,KSČM,65,,
Kyjov,37,Pojezný Ivo  Mgr.,Jihomoravský kraj,KSČM,Komunistická strana Čech a Moravy,1,poslanec Parlamentu České republiky,KSČM,55,,
Sokolov,37,Valjentová Eva  Ing.,Karlovarský kraj,KSČM,Komunistická strana Čech a Moravy,1,referentka,KSČM,52,,
Havlíčkův Brod,37,Plodík Milan,Kraj Vysočina,KSČM,Komunistická strana Čech a Moravy,1,předseda Finančního výboru Zastup. Kraje Vysočina,KSČM,60,,
Nová Paka,37,Ruml Otakar  Ing.,Královéhradecký kraj,KSČM,Komunistická strana Čech a Moravy,1,1. náměstek hejtmana Královéhradeckého kraje,KSČM,66,,
Pertoltice pod Ralskem,37,Mackovík Stanislav  Bc.,Liberecký kraj,KSČM,Komunistická strana Čech a Moravy,1,záchranář Zdravotnické záchranné služby,KSČM,49,,
Ostrava,37,Babka Josef  JUDr.,Moravskoslezský kraj,KSČM,Komunistická strana Čech a Moravy,1,1. náměstek hejtmana Moravskoslezského kraje,KSČM,59,,
Olomouc,37,Černý Alexander  RSDr.,Olomoucký kraj,KSČM,Komunistická strana Čech a Moravy,1,poslanec Parlamentu České republiky,KSČM,63,,
Dašice,37,Foldyna Jan  Ing.,Pardubický kraj,KSČM,Komunistická strana Čech a Moravy,1,místostarosta města Dašice,KSČM,60,,
Bezděkov,37,Šidlo Karel  Ing.,Plzeňský kraj,KSČM,Komunistická strana Čech a Moravy,1,poslanec Parlamentu České republiky,KSČM,58,,
Buštěhrad,37,Štefek Zdeněk  Ing.,Středočeský kraj,KSČM,Komunistická strana Čech a Moravy,1,radní Středočeského kraje,KSČM,41,,
Bílina,37,Bubeníček Oldřich,Ústecký kraj,KSČM,Komunistická strana Čech a Moravy,1,"hejtman Ústeckého kraje, novinář",KSČM,63,,
Uherské Hradiště,37,Mařák Ivan  Ing.,Zlínský kraj,KSČM,Komunistická strana Čech a Moravy,1,náměstek hejtmana Zlínského kraje,KSČM,54,,
Kovářov,38,Hroch Pavel,Jihočeský kraj,JIH 12,JIHOČEŠI 2012,1,starosta obce Kovářov,JIH 12,53,,
České Budějovice,39,Procházka Jaromír  PhDr.,Jihočeský kraj,SsČR,Strana soukromníků České republiky,1,živnostník - historik umění,SsČR,64,,
Žďár nad Sázavou,39,Stehno Miroslav,Kraj Vysočina,SsČR,Strana soukromníků České republiky,1,podnikatel,SsČR,63,,
Děčín,40,Vacková Pavla,Ústecký kraj,AO,Alternativa pro občany,1,OSVČ,BEZPP,50,,
Tábor,41,Cícha Ivan  Ing.,Jihočeský kraj,ND,Národní demokracie,1,stavbyvedoucí,ND,54,,
Žádovice,41,Daněček Milan,Jihomoravský kraj,ND,Národní demokracie,1,OSVČ,ND,25,,
Karlovy Vary,41,Hudák Michal,Karlovarský kraj,ND,Národní demokracie,1,dělník,ND,30,,
Budišov,41,Sedláček Zdeněk,Kraj Vysočina,ND,Národní demokracie,1,živnostník,BEZPP,45,,
Velké Poříčí,41,Šimek Pavel  Bc.,Královéhradecký kraj,ND,Národní demokracie,1,autorizovaný stavitel,ND,36,,
Smržovka,41,Červinka Zdeněk,Liberecký kraj,ND,Národní demokracie,1,"soukromý podnikatel, člen spolku Za naši kulturu",BEZPP,60,,
Ostrava,41,Hibsch David,Moravskoslezský kraj,ND,Národní demokracie,1,grafik,ND,45,,
Přerov,41,Scheuch Alfred  Ing.,Olomoucký kraj,ND,Národní demokracie,1,ekonom,BEZPP,61,,
Polička,41,Lipenský Zdeněk,Pardubický kraj,ND,Národní demokracie,1,pojišťovací poradce,ND,61,,
Plzeň,41,Skalský Vít  Bc.,Plzeňský kraj,ND,Národní demokracie,1,strojvedoucí,ND,43,,
Kladno,41,Drvotová Alena  Ing.,Středočeský kraj,ND,Národní demokracie,1,generální ředitelka akciové společnosti,ND,61,,
Kadaň,41,Bartoš Adam Benjamin,Ústecký kraj,ND,Národní demokracie,1,předseda Národní demokracie,ND,36,,
Zlín,41,Cekota Zdeněk  Bc.,Zlínský kraj,ND,Národní demokracie,1,podnikatel,BEZPP,62,,
Dolní Studénky,42,Sršeň Radim  Ing. Ph.D.,Olomoucký kraj,STAN,Starostové ProOlomoucký kraj,1,"star.obce,vysokošk.uč.,viceprezident Evr. asociace",STAN,36,,
Brno,43,Novák František  Mgr.,Jihomoravský kraj,Úsvit,Úsvit s Blokem proti islamizaci,1,OSVČ,Úsvit,55,,
Osová Bítýška,43,Borkovcová Jana  Mgr.,Kraj Vysočina,DOMOV s BPi,Úsvit s Blokem proti islamizaci,1,předsedkyně Bloku proti islamizaci,BEZPP,35,,
Hradec Králové,43,Štětina Jiří  MUDr.,Královéhradecký kraj,Úsvit,Úsvit s Blokem proti islamizaci,1,lékař,Úsvit,75,,
Velké Hamry,43,Hnyková Jana,Liberecký kraj,Úsvit,Úsvit s Blokem proti islamizaci,1,"poslankyně PS P ČR, všeobecná sestra",Úsvit,52,,
Orlová,43,Koruna Pavel,Moravskoslezský kraj,DOMOV s BPi,Úsvit s Blokem proti islamizaci,1,báňský záchranář,Úsvit,47,,
Prostějov,43,Vavrouch Pavel  Ing.,Olomoucký kraj,Úsvit,Úsvit s Blokem proti islamizaci,1,elektrotechnik,Úsvit,49,,
Vysoké Mýto,43,Andrle Sylor Richard  Mgr. MBA,Pardubický kraj,Úsvit,Úsvit s Blokem proti islamizaci,1,ekonom,Úsvit,42,,
Plzeň,43,Bakala Roman,Plzeňský kraj,Úsvit,Úsvit s Blokem proti islamizaci,1,OSVČ,Úsvit,42,,
Čtyřkoly,43,Hanovský Stanislav  Mgr.,Středočeský kraj,Úsvit,Úsvit s Blokem proti islamizaci,1,právník,Úsvit,52,,
Nová Ves v Horách,43,Kádner David,Ústecký kraj,Úsvit,Úsvit s Blokem proti islamizaci,1,"starosta, poslanec PČR",Úsvit,39,,
Albrechtice nad Vltavou,44,Ušatý Miroslav  Ing.,Jihočeský kraj,JHas,JIHOČEŠTÍ HASIČI,1,starosta obce,JHas,50,,
Dačice,45,Šuhaj Bohumil  Mgr.,Jihočeský kraj,Moravané,Moravané,1,učitel,Moravané,35,,
Brno,45,Hýsek Ondřej  Mgr. Ph.D.,Jihomoravský kraj,Moravané,Moravané,1,"zastupitel MČ, zástupce ředitelky gymnázia",Moravané,36,,
Jihlava,45,Mičán Antonín  Ing.,Kraj Vysočina,Moravané,Moravané,1,lesní inženýr,BEZPP,55,,
Mankovice,45,Orlitová Jarmila  Ing.,Moravskoslezský kraj,Moravané,Moravané,1,starostka,BEZPP,55,,
Bělá u Jevíčka,45,Marek Jaroslav,Pardubický kraj,Moravané,Moravané,1,"učitel italštiny, překladatel",Moravané,41,,
Hluk,45,Dohnal Pavel  Ing.,Zlínský kraj,Moravané,Moravané,1,jednatel společnosti,Moravané,55,,
Čeladná,46,Lukša Pavol,Moravskoslezský kraj,DV,Dobrá volba,1,starosta obce,DV,53,,
Ostrava,47,Jančík Petr  doc. Ing. Ph.D.,Moravskoslezský kraj,Ostravak,STAROSTOVÉ a nezávislí,1,"vysokoškolský pedagog, vedoucí katedry",BEZPP,56,,
Horní Jelení,48,Kohoutek Jiří,Pardubický kraj,SPD,Svoboda a přímá demokracie - Tomio Okamura (SPD),1,živnostník,SPD,51,,
Valašské Meziříčí,48,Dvořák Jaroslav  MUDr.,Zlínský kraj,SPD,Svoboda a přímá demokracie - Tomio Okamura (SPD),1,lékař,SPD,58,,
České Budějovice,49,Nadberežný Vladislav  Bc.,Jihočeský kraj,NG,NOVÁ GENERACE,1,podnikatel,NG,35,,
Holovousy,50,Berdychová Martina  Mgr.,Královéhradecký kraj,VČ,STAROSTOVÉ A VÝCHODOČEŠI,1,"poslankyně, krajská zastupitelka,2000-14 starostka",VČ,45,,
Spálené Poříčí,51,Čížek Pavel  Ing.,Plzeňský kraj,STAN,Starostové a Patrioti s podporou Svobodných a Soukromníků,1,"starosta města Spálené Poříčí, zatupitel Plz.kraje",STAN,52,,
Brno,52,Pořízek Petr  Ing. MBA,Jihomoravský kraj,Svobodní,Svobodní a Soukromníci,1,ekonom a manažer,Svobodní,48,,
Chodov,52,Jurča Petr,Karlovarský kraj,SsČR,Svobodní a Soukromníci,1,jednatel společnosti,SsČR,51,,
Kunčice,52,Tomášek František  Ing.,Královéhradecký kraj,SsČR,Svobodní a Soukromníci,1,soukromý zemědělec,SsČR,73,,
Radostná pod Kozákovem,52,Uchytil Radek,Liberecký kraj,Svobodní,Svobodní a Soukromníci,1,"mačkář skleněné bižuterie, dobrovolný hasič",Svobodní,48,,
Odry,52,Klein Radomír  Ing.,Moravskoslezský kraj,Svobodní,Svobodní a Soukromníci,1,ředitel soukromé společnosti,Svobodní,49,,
Loučná nad Desnou,52,Sokol Richard  Ing.,Olomoucký kraj,SsČR,Svobodní a Soukromníci,1,daňový poradce,BEZPP,37,,
Holice,52,Bajer Petr,Pardubický kraj,SsČR,Svobodní a Soukromníci,1,"předseda SsČR, místostarosta města, podnikatel",SsČR,49,,
Beroun,52,Zálom Luboš  Mgr.,Středočeský kraj,Svobodní,Svobodní a Soukromníci,1,"živnostník, programátor",Svobodní,35,,
Klášterec nad Ohří,52,Drozd Štefan  Ing.,Ústecký kraj,SsČR,Svobodní a Soukromníci,1,"starosta města, předseda Soukromníků v Ústec.kraji",SsČR,51,,
Monte - Carlo,52,Valenta Ivo,Zlínský kraj,SsČR,Svobodní a Soukromníci,1,senátor,BEZPP,60,,
Hranice,53,Kudláček Jiří,Olomoucký kraj,VOLK,OBČANÉ PRO OLOMOUCKÝ KRAJ - volba OK,1,"starosta města Hranic, býv. čs. reprez. v parašut.",BEZPP,57,,
Větřní,54,Dvořák Otakar  Mgr.,Jihočeský kraj,DSSS,"Dělnická strana sociální spravedlnosti - NE imigrantům, STOP nepřizpůsobivým a diktátu EU!",1,"zastupitel obce, předseda KO DSSS Jižní Čechy",DSSS,72,,
Karlovy Vary,54,Froněk Jiří  Bc.,Karlovarský kraj,DSSS,"Dělnická strana sociální spravedlnosti - NE imigrantům, STOP nepřizpůsobivým a diktátu EU!",1,místopředseda DSSS,DSSS,32,,
Lázně Bohdaneč,54,Jirásek Vladimír,Pardubický kraj,DSSS,"Dělnická strana sociální spravedlnosti - NE imigrantům, STOP nepřizpůsobivým a diktátu EU!",1,řidič,DSSS,56,,
Pardubice,55,Línek Roman  Ing. MBA,Pardubický kraj,KDU-ČSL,Koalice pro Pardubický kraj,1,1. náměstek hejtmana Pardubického kraje,KDU-ČSL,53,,
Hradec Králové,56,Hanousek Martin  Mgr.,Královéhradecký kraj,SZ,Piráti a Strana zelených + Změna pro Královéhradecký kraj,1,krajinný ekolog a zastupitel města Hradec Králové,SZ,33,,
České Budějovice,57,Mlčoch Svatomír  JUDr.,Jihočeský kraj,SZ,Strana zelených,1,právník,BEZPP,61,,
Nejdek,57,Vítek Lubomír  Ing.,Karlovarský kraj,SZ,Strana zelených,1,starosta města Nejdek,SZ,61,,
Ústí nad Labem,58,Vandas Tomáš  Mgr.,Ústecký kraj,DSSS,"Dělnická strana sociální spravedlnosti - NE imigrantům, PROTI nepřizpůsobivým, PRO pořádek!",1,předseda DSSS,DSSS,47,,
Dolní Dobrouč,59,Dušek Jaromír  Ing.,Pardubický kraj,SPO,OSOBNOSTI PARDUBICKÉHO KRAJE,1,"Náměstek hejtmana Pard. kraje, odpov. za dopravu",SPO,64,,
Chomutov,60,Märc Milan  Mgr.,Ústecký kraj,NS,NOVÝ SEVER,1,ředitel SVČ Domeček Chomutov,NS,50,,
Plzeň,61,Bartošová Ivana  Mgr.,Plzeňský kraj,KDU-ČSL,"Koalice pro Plzeňský kraj - KDU-ČSL, Strana zelených a hnutí Nestraníci",1,školní inspektorka,KDU-ČSL,56,,
Strmilov,62,Steinhauserová Irena  Ing. Mgr.,Jihočeský kraj,Svobodní,Strana svobodných občanů,1,konzultantka vzdělávání,Svobodní,55,,
Horní Rožínka,62,Fendrych Josef,Kraj Vysočina,Svobodní,Strana svobodných občanů,1,místostarosta,Svobodní,45,,
Karlovy Vary,63,Kulhánek Petr  Ing.,Karlovarský kraj,KOA,"STAROSTOVÉ A NEZÁVISLÍ (STAN) s podporou KOA, KDU-ČSL a TOP 09",1,"primátor města Karlovy Vary, ekonom",KOA,45,,
Chodov,64,Pizinger Patrik,Karlovarský kraj,HNHRM,HNUTÍ NEZÁVISLÝCH ZA HARMONICKÝ ROZVOJ OBCÍ A MĚST,1,starosta,HNHRM,41,,
Opava,65,Brady Pavla  Ing.,Moravskoslezský kraj,SZ,PRO REGION,1,"zastupitelka Opavy, náměstkyně primátora Opavy",SZ,44,,
Liberec,66,Kocumová Zuzana  Bc.,Liberecký kraj,Změna,ZMĚNA PRO LIBERECKÝ KRAJ,1,mistryně světa a Evropy ve Spartan Race,Změna,36,,
České Budějovice,67,Kočí Jindřich,Jihočeský kraj,Rozumní,NE ILEGÁLNÍ IMIGRACI - PENÍZE RADĚJI PRO NAŠE LIDI,1,stavbyvedoucí v oboru elektro,BEZPP,43,,
Dobšice,67,Šalamoun Jan  Ing.,Jihomoravský kraj,Rozumní,NE ILEGÁLNÍ IMIGRACI - PENÍZE RADĚJI PRO NAŠE LIDI,1,agronom,BEZPP,60,,
Ostrov,67,Petráň Luděk  Mgr.,Karlovarský kraj,Rozumní,NE ILEGÁLNÍ IMIGRACI - PENÍZE RADĚJI PRO NAŠE LIDI,1,učitel ZŠ,BEZPP,49,,
Jihlava,67,Obhlídal Zdeněk,Kraj Vysočina,Rozumní,NE ILEGÁLNÍ IMIGRACI - PENÍZE RADĚJI PRO NAŠE LIDI,1,manažer,Rozumní,63,,
Lhota pod Libčany,67,Makalouš Václav  Mgr.,Královéhradecký kraj,Rozumní,NE ILEGÁLNÍ IMIGRACI - PENÍZE RADĚJI PRO NAŠE LIDI,1,administrativní pracovník v rodinné firmě,BEZPP,38,,
Benešov u Semil,67,Dohnalová Pavlína,Liberecký kraj,Rozumní,NE ILEGÁLNÍ IMIGRACI - PENÍZE RADĚJI PRO NAŠE LIDI,1,finanční poradce,BEZPP,44,,
Albrechtice,67,"Tyrlíková Marcela  Bc. DiS., MBA",Moravskoslezský kraj,Rozumní,NE ILEGÁLNÍ IMIGRACI - PENÍZE RADĚJI PRO NAŠE LIDI,1,úřednice,BEZPP,44,,
Zábřeh,67,Stejskal Vladimír  Ing.,Olomoucký kraj,Rozumní,NE ILEGÁLNÍ IMIGRACI - PENÍZE RADĚJI PRO NAŠE LIDI,1,"systémový specialista, informatik",Rozumní,55,,
Choceň,67,Šimáček Petr  Mgr.,Pardubický kraj,Rozumní,NE ILEGÁLNÍ IMIGRACI - PENÍZE RADĚJI PRO NAŠE LIDI,1,"hudební pedagog, vedoucí skupiny Kapka, OSVČ",BEZPP,54,,
Klatovy,67,Peksa Zdeněk,Plzeňský kraj,Rozumní,NE ILEGÁLNÍ IMIGRACI - PENÍZE RADĚJI PRO NAŠE LIDI,1,živnostník,BEZPP,57,,
Statenice,67,Lenková Jitka  JUDr.,Středočeský kraj,Rozumní,NE ILEGÁLNÍ IMIGRACI - PENÍZE RADĚJI PRO NAŠE LIDI,1,právnička a nezávislá publicistka,BEZPP,53,,
Chomutov,67,Kotyzová Petra  Mgr.,Ústecký kraj,Rozumní,NE ILEGÁLNÍ IMIGRACI - PENÍZE RADĚJI PRO NAŠE LIDI,1,středoškolská učitelka,BEZPP,50,,
Rožnov pod Radhoštěm,67,Štrajt Jaroslav,Zlínský kraj,Rozumní,NE ILEGÁLNÍ IMIGRACI - PENÍZE RADĚJI PRO NAŠE LIDI,1,obchodní manažer,BEZPP,57,,
Hradec Králové,68,Janiš Kamil  doc. PhDr. PaedDr. CSc.,Královéhradecký kraj,NEZ,NEZÁVISLÍ,1,vysokoškolský pedagog,BEZPP,65,,
Ostrava,68,Janáčková Liana  Ing. arch.,Moravskoslezský kraj,NEZ,NEZÁVISLÍ,1,starostka statutární město Ostrava - městský obvod,NEZ,62,,
Zlín,68,Skála Stanislav  Ing.,Zlínský kraj,NEZ,NEZÁVISLÍ,1,ekonomický poradce a konzultant,BEZPP,65,,
Brno,69,Holíková Kristina  Ing.,Jihomoravský kraj,KONS,Konzervativní strana,1,projektant,KONS,37,,
Jindřichův Hradec,70,Blažek Zdeněk  Ing.,Jihočeský kraj,SPRRSČ M.Sládka,"Koalice Republikánů Miroslava Sládka, Patriotů České republiky a HOZK",1,podnikatel,BEZPP,67,,
Brno,70,Sládek Miroslav  PhDr.,Jihomoravský kraj,SPRRSČ M.Sládka,"Koalice Republikánů Miroslava Sládka, Patriotů České republiky a HOZK",1,politik,SPRRSČ M.Sládka,65,,
Toužim,70,Pulec František,Karlovarský kraj,SPRRSČ M.Sládka,"Koalice Republikánů Miroslava Sládka, Patriotů České republiky a HOZK",1,technik,BEZPP,33,,
Vilémov,70,Smutný Patrik,Kraj Vysočina,SPRRSČ M.Sládka,"Koalice Republikánů Miroslava Sládka, Patriotů České republiky a HOZK",1,technik,BEZPP,37,,
Nové Město nad Metují,70,Jarkovská Věra,Královéhradecký kraj,SPRRSČ M.Sládka,"Koalice Republikánů Miroslava Sládka, Patriotů České republiky a HOZK",1,podnikatelka,SPRRSČ M.Sládka,66,,
Bohumín,70,Sedláček Kamil,Moravskoslezský kraj,SPRRSČ M.Sládka,"Koalice Republikánů Miroslava Sládka, Patriotů České republiky a HOZK",1,dispečer,SPRRSČ M.Sládka,45,,
Bruntál,70,Hrubý Michal  PhDr. Ph.D.,Olomoucký kraj,HOZK,"Koalice Republikánů Miroslava Sládka, Patriotů České republiky a HOZK",1,fyzioterapeut fotbalové 19,HOZK,38,,
Dřenice,70,Pokorná Jaroslava,Pardubický kraj,SPRRSČ M.Sládka,"Koalice Republikánů Miroslava Sládka, Patriotů České republiky a HOZK",1,manažer obchodu,SPRRSČ M.Sládka,61,,
Přeštice,70,Naxera Norbert  JUDr. Bc.,Plzeňský kraj,SPRRSČ M.Sládka,"Koalice Republikánů Miroslava Sládka, Patriotů České republiky a HOZK",1,právník,BEZPP,31,,
Beroun,70,Kučera Dušan  Mgr.,Středočeský kraj,SPRRSČ M.Sládka,"Koalice Republikánů Miroslava Sládka, Patriotů České republiky a HOZK",1,podnikatel,SPRRSČ M.Sládka,54,,
Zlín,70,Paták Marek,Zlínský kraj,HOZK,"Koalice Republikánů Miroslava Sládka, Patriotů České republiky a HOZK",1,městský policista,HOZK,47,,
Zlín,71,Kruliš Vladimír  Mgr.,Zlínský kraj,SPO,Strana Práv Občanů,1,vedoucí Odd. vnitrost. cest Kanceláře prezidenta,SPO,34,,
Jablonná,72,Vacek Josef  Mgr.,Středočeský kraj,KDU-ČSL,"""SPOLU PRO KRAJ KDU-ČSL, SZ A SNK ED""",1,ředitel odboru MHMP,KDU-ČSL,57,,
Havlíčkův Brod,73,Honzárek Libor,Kraj Vysočina,TOP 09,Žijeme Vysočinou - TOP 09 a Zelení,1,místostarosta města,TOP 09,53,,
Velká Bystřice,74,Slavotínek Ivo  Mgr.,Olomoucký kraj,KDU-ČSL,Koalice pro Olomoucký kraj společně se starosty,1,"místostarosta města Velká Bystřice, kr. zastupitel",KDU-ČSL,40,,
Brno,75,Lamprecht Erik,Jihomoravský kraj,DSSS,Dělnická strana sociální spravedlnosti - Imigranty a islám v ČR nechceme!,1,"manažer restaurační sítě, místopředseda DSSS",DSSS,28,,
Puklice,75,Votava Libor  Ing.,Kraj Vysočina,DSSS,Dělnická strana sociální spravedlnosti - Imigranty a islám v ČR nechceme!,1,živnostník,DSSS,53,,
Dolní Lánov,75,Marx Marcel,Královéhradecký kraj,DSSS,Dělnická strana sociální spravedlnosti - Imigranty a islám v ČR nechceme!,1,místopředseda KO DSSS Královéhradeckého kraje,DSSS,48,,
Harrachov,75,Nestler Jindřich,Liberecký kraj,DSSS,Dělnická strana sociální spravedlnosti - Imigranty a islám v ČR nechceme!,1,recepční v hotelu,DSSS,40,,
Krnov,75,Chalupa Jaroslav  Mgr.,Moravskoslezský kraj,DSSS,Dělnická strana sociální spravedlnosti - Imigranty a islám v ČR nechceme!,1,pedagog,DSSS,63,,
Prostějov,75,Vrcha Oldřich,Olomoucký kraj,DSSS,Dělnická strana sociální spravedlnosti - Imigranty a islám v ČR nechceme!,1,předseda MO DSSS,DSSS,72,,
Plzeň,75,Štěpánek Jiří  Mgr.,Plzeňský kraj,DSSS,Dělnická strana sociální spravedlnosti - Imigranty a islám v ČR nechceme!,1,výkonný místopředseda DSSS,DSSS,44,,
Brandýs nad Labem-Stará Boleslav,75,Černý Svatopluk,Středočeský kraj,DSSS,Dělnická strana sociální spravedlnosti - Imigranty a islám v ČR nechceme!,1,"asistent prevence kriminality, místopředseda DSSS",DSSS,59,,
Vigantice,75,Brandtner Lukáš,Zlínský kraj,DSSS,Dělnická strana sociální spravedlnosti - Imigranty a islám v ČR nechceme!,1,servisní technik,DSSS,21,,
Vsetín,76,Berg Michal  BcA.,Zlínský kraj,SZ,Otevřený kraj,1,"místopředseda SZ, zastupitel města Vsetína",SZ,36,,
Velemín,77,Pitek Daniel,Ústecký kraj,SZ,Piráti a Strana zelených,1,"zemědělec, lesník, hospodský,mluvčí kampaně",SZ,49,,
Strakonice,78,Flachs Robert  Mgr.,Jihočeský kraj,SPD,Koalice Svoboda a přímá demokracie - Tomio Okamura (SPD) a Strana Práv Občanů,1,pořizovatel UPD,SPD,38,,
Blansko,78,"Hrnčíř Jan  PhDr. Ing. Mgr. MBA, LL.M.",Jihomoravský kraj,SPD,Koalice Svoboda a přímá demokracie - Tomio Okamura (SPD) a Strana Práv Občanů,1,"vysokoškolský pedagog, ředitel vzdělávacího centra",SPD,39,,
Skalná,78,Bradáč Jaroslav  Ing.,Karlovarský kraj,SPO,Koalice Svoboda a přímá demokracie - Tomio Okamura (SPD) a Strana Práv Občanů,1,technik,SPO,61,,
Velké Meziříčí,78,Veleba Jan  Ing.,Kraj Vysočina,SPO,Koalice Svoboda a přímá demokracie - Tomio Okamura (SPD) a Strana Práv Občanů,1,senátor,SPO,69,,
Liberec,78,Vích Radovan  Ing.,Liberecký kraj,SPD,Koalice Svoboda a přímá demokracie - Tomio Okamura (SPD) a Strana Práv Občanů,1,podnikatel,SPD,51,,
Ostrava,78,Sládeček Karel  Mgr.,Moravskoslezský kraj,SPO,Koalice Svoboda a přímá demokracie - Tomio Okamura (SPD) a Strana Práv Občanů,1,ředitel,SPO,53,,
Prostějov,78,Fiala Radim  Ing.,Olomoucký kraj,SPD,Koalice Svoboda a přímá demokracie - Tomio Okamura (SPD) a Strana Práv Občanů,1,poslanec PS PČR,SPD,47,,
Plzeň,78,Levová Jana,Plzeňský kraj,SPD,Koalice Svoboda a přímá demokracie - Tomio Okamura (SPD) a Strana Práv Občanů,1,jednatel společnosti,SPD,39,,
Všechlapy,78,Rozvoral Radek,Středočeský kraj,SPD,Koalice Svoboda a přímá demokracie - Tomio Okamura (SPD) a Strana Práv Občanů,1,manažer a místostarosta obce Všechlapy,SPD,49,,
Varnsdorf,78,Šmíd Petr  Mgr. Bc.,Ústecký kraj,SPO,Koalice Svoboda a přímá demokracie - Tomio Okamura (SPD) a Strana Práv Občanů,1,ředitel ZŠ a MŠ,SPO,52,,
Ústí nad Labem,79,Nechybová Věra  Ing.,Ústecký kraj,ProKraj,ProKraj,1,primátorka statutárního města Ústí nad Labem,BEZPP,44,,
Karlovy Vary,80,Kronika Jan,Karlovarský kraj,PRO ZS,PRO Zdraví a Sport,1,"ředitel hotelu, předseda AHR KV kraje",PRO ZS,46,,
Plzeň,80,Pavlíčková Věra  MUDr.,Plzeňský kraj,PRO ZS,PRO Zdraví a Sport,1,"chirurg, hokejistka",BEZPP,59,,
České Budějovice,81,Kremsa Vladimír Štěpán  prof.,Jihočeský kraj,SPR-RSČMS,"SDRUŽENÍ PRO REPUBLIKU - REPUBLIKÁNSKÁ STRANA ČECH, MORAVY A SLEZSKA",1,profesor,BEZPP,59,,
Slavkov u Brna,81,Urbanec Bronislav,Jihomoravský kraj,SPR-RSČMS,"SDRUŽENÍ PRO REPUBLIKU - REPUBLIKÁNSKÁ STRANA ČECH, MORAVY A SLEZSKA",1,důchodce,SPR-RSČMS,62,,
Bruntál,81,Mašlík Karel  Mgr.,Moravskoslezský kraj,SPR-RSČMS,"SDRUŽENÍ PRO REPUBLIKU - REPUBLIKÁNSKÁ STRANA ČECH, MORAVY A SLEZSKA",1,učitel,SPR-RSČMS,49,,
Olomouc,81,Sláma Roman,Olomoucký kraj,SPR-RSČMS,"SDRUŽENÍ PRO REPUBLIKU - REPUBLIKÁNSKÁ STRANA ČECH, MORAVY A SLEZSKA",1,živnostník,SPR-RSČMS,53,,
Nymburk,81,Žák Jindřich,Středočeský kraj,SPR-RSČMS,"SDRUŽENÍ PRO REPUBLIKU - REPUBLIKÁNSKÁ STRANA ČECH, MORAVY A SLEZSKA",1,řidič,BEZPP,49,,
Jílové,81,Půlpán Michal,Ústecký kraj,SPR-RSČMS,"SDRUŽENÍ PRO REPUBLIKU - REPUBLIKÁNSKÁ STRANA ČECH, MORAVY A SLEZSKA",1,OSVČ,SPR-RSČMS,40,,
Karolinka,81,Frydrych Miroslav,Zlínský kraj,SPR-RSČMS,"SDRUŽENÍ PRO REPUBLIKU - REPUBLIKÁNSKÁ STRANA ČECH, MORAVY A SLEZSKA",1,důchodce,SPR-RSČMS,73,,
Písek,82,Horák Michal  Ing.,Jihočeský kraj,Piráti,Česká pirátská strana,1,IT specialista,Piráti,51,,
Karlovy Vary,82,Janů Josef  Ing.,Karlovarský kraj,Piráti,Česká pirátská strana,1,"stavební inženýr, předseda Volejbalového klubu",Piráti,47,,
Havlíčkův Brod,82,Kořínek Josef,Kraj Vysočina,Piráti,Česká pirátská strana,1,hudebník,Piráti,33,,
Pěnčín,82,Kolek Ondřej  Ing. Ph.D.,Liberecký kraj,Piráti,Česká pirátská strana,1,chemik - vývoj protikorozní ochrany,Piráti,37,,
Ostrava,82,Černohorský Lukáš  Ing.,Moravskoslezský kraj,Piráti,Česká pirátská strana,1,projektový manažer,Piráti,31,,
Plzeň,82,Bartoň Lukáš  Ing. Ph.D.,Plzeňský kraj,Piráti,Česká pirátská strana,1,"konstruktér, vědecký pracovník",Piráti,35,,
Mladá Boleslav,82,Kopřiva František,Středočeský kraj,Piráti,Česká pirátská strana,1,student ČVUT,Piráti,20,,
Hrádek nad Nisou,83,Půta Martin,Liberecký kraj,SLK,Starostové pro Liberecký kraj,1,"hejtman, starosta Hrádku n. N. v letech 2002-2012",STAN,44,,
Česká Lípa,84,Vondráček Stanislav,Liberecký kraj,NÁR.SOC.,Národní socialisté - LEV21,1,vrátný,NÁR.SOC.,54,,
Vítějeves,85,Havlíček Petr,Pardubický kraj,NEZ,"VÝCHODOČEŠI,NEZÁVISLÍ,PATRIOTI",1,"starosta, podnikatel",BEZPP,62,,
Havlíčkův Brod,86,Kopecký Zdeněk  Ing.,Kraj Vysočina,Změna,ZMĚNA pro Vysočinu,1,stavební inženýr,BEZPP,55,,
Židlochovice,87,Vitula Jan  Ing.,Jihomoravský kraj,TOP 09,"TOP 09 s podporou starostů a ""Žít Brno""",1,starosta Židlochovic,TOP 09,47,,
Pardubice,88,Sedlák Filip  Mgr.,Pardubický kraj,FairPlay,Naše Pardubice,1,"pedagog, zastupitel MO Pardubice I",FairPlay,32,,
Horní Stropnice,89,Albert Luboš,Jihočeský kraj,Úsvit,Úsvit - Národní Koalice,1,"bezpečn. analytik, bývalý policista OS Policie ČR",Úsvit,53,,
Zlín,89,Bravenec Jan  Ing.,Zlínský kraj,Úsvit,Úsvit - Národní Koalice,1,jednatel společnosti,Úsvit,57,,